66050460 นายอนุวัฒน์​ ธารนพ 
66050010 นายกฤตเมธ เยี่ยงปรีชากุล
65050953 นางสาวสุวนันท์ สุวรรณกล่อม
66050356 นายรัฐพล จันทะศิลา
66050210 นพคุณ แสงคุ้มทรัพย์
66050376 วราภรณ์ นาคบรรณ์
66050141 ณัฐพล นวลเอี่ยมเอก
66051096 นางสาว สุจารี ดวงแก้วนภาลัย 
66050478 นางสาวอัฌรินทร์ ยอดพิจิตร
66050466 นายอภิภูษณุ พฤทธิ์พหล 
66050686 ณัฏฐนนท์ รักพานิชมณี
66050019 ก้องภพ วรวุฒิเกษม
66050265 นายปวรปรัชญ์ เกษมนุกิจกุล
66050390 นายวิทวัตร  ปานบำรุง 
66050386 วิชญ์พล บัวทอง
66050483 นายอันดามัน สินสถาพรพงศ์
66050721 นางสาวณีรนุช เชยวัดเกาะ
66050174 นายธนบดี กาญชนโอษฐ์
66050278 เป็นเอก คงกะพันธ์
66050160 เตชสิทธิ์ วาณิชภัทรกุล
66050880 พงศ์เกียรติ รัตนสังข์
66050859 นายปัณวัจน์ ศรีทองนาก
66050956 ภัทรเศรษฐ์ ช้างมาศ
66050351 รณกร เมืองแก่น
66051068 สรคมน์ ตุ้ยสาร 
66050861 ปาณิสรา พิบูลย์
66050145 นายณัฐวุฒิ กลิ่นถือศิล
66050050 นายคณินทร์ เมฆกระจ่าง
66050998 นายรพีพัทร คำเสน
66050635 นายชัชชัย ปัญญานาย 
66050173 นายธนชานนท์  เวชสันดรพงษ์
66050947 นายภัทรชัย ลี้ยุทธานนท์
66050310 นางสาวพิริยากร แก้วเรือง
66050946 ภโวทัย ณ ไพรี